(462)541-1907 50
(930)692-7847 90
(329)870-1615 48
(713)599-8585 30
(810)582-4664 63
(205)399-3214 34
(777)837-6119 74
(800)486-1880 90
(861)502-4720 82
(373)731-9239 78
(240)755-6084 68
(840)785-0627 82
(970)947-2042 53
(293)232-2697 64
(710)888-3580 63
(898)960-1566 7
(321)588-6342 32
(737)317-3971 63
(450)626-8279 99
(964)769-7044 7
(710)481-1414 43
(874)923-1588 69
(632)812-1842 99
(240)482-2092 65
(850)736-0965 69
(908)626-9946 23
(466)368-2001 90
(777)604-6492 24
(432)668-9168 56
(855)881-6301 22
(517)782-7878 48
(697)983-8803 48
(257)409-6457 74
(607)507-7513 78
(916)505-6885 47
(836)960-6409 24
(922)892-3646 5
(662)407-5736 38
(853)930-1012 46
(536)981-2164 80
(392)955-3611 12
(747)856-2186 1
(695)853-0957 92
(721)467-2091 12
(453)558-1536 43
(330)207-3362 86
(890)332-2736 93
(764)611-2727 19
(678)330-1805 94
(413)934-5310 81
(481)756-6058 3
(946)662-4180 63
(919)380-9723 54
(482)775-2432 54
(866)429-6235 26
(997)849-5802 31
(686)427-5212 92
(243)857-5562 11
(791)748-9981 92
(382)413-7189 98
(484)783-9298 46
(858)760-9564 62
(873)269-2186 67
(499)431-5946 94
(473)346-3238 59
(297)389-2476 60
(550)534-6090 61
(529)459-3353 56
(986)969-5497 26
(365)945-1864 75
(805)460-9233 100
(612)286-3662 28
(439)342-5282 16
(719)757-2303 76
(793)302-1759 7
(799)598-7653 24
(598)342-1854 35
(788)504-8598 56
(422)359-2318 41
(280)821-8917 3
(682)536-5538 54
(326)559-9007 27
(410)577-7725 67
(875)837-9693 82
(239)994-8189 97
(424)439-8704 22
(730)496-6213 96
(738)825-8427 74
(714)590-6986 41
(892)800-8142 85
(799)812-8022 93
(522)494-3572 84
(503)656-9104 93
(283)501-8103 94
(687)290-8627 30
(638)923-6149 67
(754)460-1625 75
(588)223-2279 41
(414)390-6552 15
(329)482-3262 60